…
## Simplifying {.smaller}

There is a lot of variables we won't care about for the time being, so lets make life easier by selecting a subset of columns.

```{r eval=FALSE}
nyc %<>% 
  select(Registration.State:Issuing.Agency, 
         Violation.Location, Violation.Precinct, Violation.Time,
         House.Number:Intersecting.Street, Vehicle.Color)
nyc


## # A tibble: 9,100,278 × 14
##    Registration.State Plate.Type Issue.Date Violation.Code Vehicle.Body.Type Vehicle.Make
##                 <chr>      <chr>      <chr>          <int>             <chr>        <chr>
## 1                  NY        PAS 12/18/1970             20              SUBN          GMC
## 2                  NY        COM 02/02/1971             46              DELV        FRUEH
## 3                  NY        PAS 09/18/1971             40               SDN        MAZDA
## 4                  NY        SRF 09/18/1971             21              SUBN        NISSA
## 5                  TX        PAS 09/18/1971             21                            GMC
## 6                  NY        SRF 09/18/1971             21               VAN         FORD
## 7                  NY        999 10/10/1971             14               BUS        INTER
## 8                  VA        PAS 04/05/1973             14               SDN        TOYOT
## 9                  NY        COM 07/22/1973             46              DELV        TOYOT
## 10                 NY        PAS 08/12/1973             21              SUBN        ACURA
## # ... with 9,100,268 more rows, and 8 more variables: Issuing.Agency <chr>,
## #   Violation.Location <int>, Violation.Precinct <int>, Violation.Time <chr>,
## #   House.Number <chr>, Street.Name <chr>, Intersecting.Street <chr>, Vehicle.Color <chr>
```
…
## [1] "character"

nyc$Issue.Date = mdy(nyc$Issue.Date)
class(nyc$Issue.Date)

## [1] "Date"
```

## {.smaller}

```{r, eval=FALSE}
nyc

## # A tibble: 9,100,278 × 14
##    Registration.State Plate.Type Issue.Date Violation.Code Vehicle.Body.Type Vehicle.Make
##                 <chr>      <chr>     <date>          <int>             <chr>        <chr>
## 1                  NY        PAS 1970-12-18             20              SUBN          GMC
## 2                  NY        COM 1971-02-02             46              DELV        FRUEH
## 3                  NY        PAS 1971-09-18             40               SDN        MAZDA
## 4                  NY        SRF 1971-09-18             21              SUBN        NISSA
## 5                  TX        PAS 1971-09-18             21                            GMC
## 6                  NY        SRF 1971-09-18             21               VAN         FORD
## 7                  NY        999 1971-10-10             14               BUS        INTER
## 8                  VA        PAS 1973-04-05             14               SDN        TOYOT
## 9                  NY        COM 1973-07-22             46              DELV        TOYOT
## 10                 NY        PAS 1973-08-12             21              SUBN        ACURA
## # ... with 9,100,268 more rows, and 8 more variables: Issuing.Agency <chr>,
## #   Violation.Location <int>, Violation.Precinct <int>, Violation.Time <chr>,
## #   House.Number <chr>, Street.Name <chr>, Intersecting.Street <chr>, Vehicle.Color <chr>
```
…
